[
    {
        "name":"Colombo",
        "X": 704,
        "Y":424,
        "owner":"rus",
        "capturable":true
    },
    {
        "name":"Chasovnya",
        "X": 918.75,
        "Y": 247,
        "owner":"rus",
        "capturable":true
    },
    {
        "name":"Miami",
        "X": 1297,
        "Y": 368,
        "owner":"us",
        "capturable":true
    },
    {
        "name":"Norfolk",
        "X": 1308.75,
        "Y": 333.75,
        "owner":"us",
        "capturable":true
    }
]